digraph "nhs_kiosk_application.Content.WebViews.TrainingView.OnNavigatedFrom"
{
 // LATEX_PDF_SIZE
  edge [fontname="Helvetica",fontsize="10",labelfontname="Helvetica",labelfontsize="10"];
  node [fontname="Helvetica",fontsize="10",shape=record];
  rankdir="LR";
  Node1 [label="nhs_kiosk_application.Content.\lWebViews.TrainingView.OnNavigatedFrom",height=0.2,width=0.4,color="black", fillcolor="grey75", style="filled", fontcolor="black",tooltip="Stops the idle timer upon navigating away from this page."];
  Node1 -> Node2 [color="midnightblue",fontsize="10",style="solid",fontname="Helvetica"];
  Node2 [label="nhs_kiosk_application.Content.\lWebViews.TrainingView.OnIsIdleChanged",height=0.2,width=0.4,color="black", fillcolor="white", style="filled",URL="$classnhs__kiosk__application_1_1_content_1_1_web_views_1_1_training_view.html#a838c02112fee5b5d1e99a89390a6cdfd",tooltip="Navigates to Main Page if idle."];
}
