digraph "nhs_kiosk_application.Content.DocumentSendCard.Document3_ToggleDocumentOff"
{
 // LATEX_PDF_SIZE
  edge [fontname="Helvetica",fontsize="10",labelfontname="Helvetica",labelfontsize="10"];
  node [fontname="Helvetica",fontsize="10",shape=record];
  rankdir="LR";
  Node1 [label="nhs_kiosk_application.Content.\lDocumentSendCard.Document3\l_ToggleDocumentOff",height=0.2,width=0.4,color="black", fillcolor="grey75", style="filled", fontcolor="black",tooltip="Toggles Documents To Send."];
  Node1 -> Node2 [color="midnightblue",fontsize="10",style="solid",fontname="Helvetica"];
  Node2 [label="nhs_kiosk_application.Content.\lDocumentSendCard.GetImage",height=0.2,width=0.4,color="black", fillcolor="white", style="filled",URL="$classnhs__kiosk__application_1_1_content_1_1_document_send_card.html#a54095a85de2975f1e50da480c751ed10",tooltip="Applies the correct icon image based on document selections."];
}
