digraph "nhs_kiosk_application.Content.WebViews.TrainingView.NHS_Training_NavigationStarting"
{
 // LATEX_PDF_SIZE
  edge [fontname="Helvetica",fontsize="10",labelfontname="Helvetica",labelfontsize="10"];
  node [fontname="Helvetica",fontsize="10",shape=record];
  rankdir="LR";
  Node1 [label="nhs_kiosk_application.Content.\lWebViews.TrainingView.NHS\l_Training_NavigationStarting",height=0.2,width=0.4,color="black", fillcolor="grey75", style="filled", fontcolor="black",tooltip=" "];
  Node1 -> Node2 [color="midnightblue",fontsize="10",style="solid",fontname="Helvetica"];
  Node2 [label="nhs_kiosk_application.App.\lMovePointer",height=0.2,width=0.4,color="black", fillcolor="white", style="filled",URL="$classnhs__kiosk__application_1_1_app.html#aaf3dcb0a822d9ebbcc793ba56613cc91",tooltip="Simulates screen input from webviews."];
}
